{
  "type": "FeatureCollection",
  "features": [
    {
      "type": "Feature",
      "properties": {},
      "geometry": {
        "type": "Polygon",
        "coordinates": [
          [
            [
              106.73046112060547,
              -6.118707747190845
            ],
            [
              106.73286437988281,
              -6.185270134775632
            ],
            [
              106.7654800415039,
              -6.252847984958681
            ],
            [
              106.78298950195312,
              -6.298918791076363
            ],
            [
              106.88529968261719,
              -6.301648784883256
            ],
            [
              106.95945739746094,
              -6.300966287777954
            ],
            [
              106.94435119628906,
              -6.19721634559124
            ],
            [
              106.9244384765625,
              -6.128265935188198
            ],
            [
              106.90589904785156,
              -6.105735647265721
            ],
            [
              106.79397583007812,
              -6.092763233165217
            ],
            [
              106.73046112060547,
              -6.118707747190845
            ]
          ]
        ]
      }
    }
  ]
}