<?xml version="1.0" encoding="UTF-8" standalone="no"?>
<!-- Created with Inkscape (http://www.inkscape.org/) -->

<svg
   xmlns:dc="http://purl.org/dc/elements/1.1/"
   xmlns:cc="http://creativecommons.org/ns#"
   xmlns:rdf="http://www.w3.org/1999/02/22-rdf-syntax-ns#"
   xmlns:svg="http://www.w3.org/2000/svg"
   xmlns="http://www.w3.org/2000/svg"
   xmlns:sodipodi="http://sodipodi.sourceforge.net/DTD/sodipodi-0.dtd"
   xmlns:inkscape="http://www.inkscape.org/namespaces/inkscape"
   width="97.194176mm"
   height="123.89324mm"
   viewBox="0 0 97.194175 123.89324"
   version="1.1"
   id="svg8"
   inkscape:version="0.92.2 5c3e80d, 2017-08-06"
   sodipodi:docname="logo-brand.svg">
  <defs
     id="defs2">
    <style
       id="style881">.cls-1,.cls-4{fill:#2ca1fd;}.cls-2{fill:#7eb532;}.cls-3{fill:#1e5e96;}.cls-4{font-size:186.51px;font-family:NexaBold, Nexa Bold;}.cls-5{letter-spacing:-0.02em;}.cls-6{font-size:311.56px;fill:#042777;font-family:Lato-Bold, Lato;font-weight:700;}</style>
    <filter
       id="filter1393"
       inkscape:label="Drop Shadow"
       style="color-interpolation-filters:sRGB">
      <feFlood
         id="feFlood1383"
         result="flood"
         flood-color="rgb(255,255,255)"
         flood-opacity="1" />
      <feComposite
         id="feComposite1385"
         result="composite1"
         operator="in"
         in2="SourceGraphic"
         in="flood" />
      <feGaussianBlur
         id="feGaussianBlur1387"
         result="blur"
         stdDeviation="28.2"
         in="composite1" />
      <feOffset
         id="feOffset1389"
         result="offset"
         dy="6"
         dx="6" />
      <feComposite
         id="feComposite1391"
         result="composite2"
         operator="over"
         in2="offset"
         in="SourceGraphic" />
    </filter>
    <filter
       id="filter42"
       inkscape:label="Drop Shadow"
       style="color-interpolation-filters:sRGB">
      <feFlood
         id="feFlood32"
         result="flood"
         flood-color="rgb(255,255,255)"
         flood-opacity="1" />
      <feComposite
         id="feComposite34"
         result="composite1"
         operator="in"
         in2="SourceGraphic"
         in="flood" />
      <feGaussianBlur
         id="feGaussianBlur36"
         result="blur"
         stdDeviation="28.2"
         in="composite1" />
      <feOffset
         id="feOffset38"
         result="offset"
         dy="6"
         dx="6" />
      <feComposite
         id="feComposite40"
         result="composite2"
         operator="over"
         in2="offset"
         in="SourceGraphic" />
    </filter>
    <filter
       id="filter66"
       inkscape:label="Drop Shadow"
       style="color-interpolation-filters:sRGB">
      <feFlood
         id="feFlood56"
         result="flood"
         flood-color="rgb(255,255,255)"
         flood-opacity="1" />
      <feComposite
         id="feComposite58"
         result="composite1"
         operator="in"
         in2="SourceGraphic"
         in="flood" />
      <feGaussianBlur
         id="feGaussianBlur60"
         result="blur"
         stdDeviation="19.6"
         in="composite1" />
      <feOffset
         id="feOffset62"
         result="offset"
         dy="4.57967e-15"
         dx="4.57967e-15" />
      <feComposite
         id="feComposite64"
         result="composite2"
         operator="over"
         in2="offset"
         in="SourceGraphic" />
    </filter>
    <style
       id="style881-39">.cls-1,.cls-4{fill:#2ca1fd;}.cls-2{fill:#7eb532;}.cls-3{fill:#1e5e96;}.cls-4{font-size:186.51px;font-family:NexaBold, Nexa Bold;}.cls-5{letter-spacing:-0.02em;}.cls-6{font-size:311.56px;fill:#042777;font-family:Lato-Bold, Lato;font-weight:700;}</style>
    <filter
       id="filter1393-0"
       inkscape:label="Drop Shadow"
       style="color-interpolation-filters:sRGB">
      <feFlood
         id="feFlood1383-5"
         result="flood"
         flood-color="rgb(255,255,255)"
         flood-opacity="1" />
      <feComposite
         id="feComposite1385-22"
         result="composite1"
         operator="in"
         in2="SourceGraphic"
         in="flood" />
      <feGaussianBlur
         id="feGaussianBlur1387-7"
         result="blur"
         stdDeviation="28.2"
         in="composite1" />
      <feOffset
         id="feOffset1389-3"
         result="offset"
         dy="6"
         dx="6" />
      <feComposite
         id="feComposite1391-7"
         result="composite2"
         operator="over"
         in2="offset"
         in="SourceGraphic" />
    </filter>
    <filter
       id="filter42-90"
       inkscape:label="Drop Shadow"
       style="color-interpolation-filters:sRGB">
      <feFlood
         id="feFlood32-2"
         result="flood"
         flood-color="rgb(255,255,255)"
         flood-opacity="1" />
      <feComposite
         id="feComposite34-3"
         result="composite1"
         operator="in"
         in2="SourceGraphic"
         in="flood" />
      <feGaussianBlur
         id="feGaussianBlur36-9"
         result="blur"
         stdDeviation="28.2"
         in="composite1" />
      <feOffset
         id="feOffset38-9"
         result="offset"
         dy="6"
         dx="6" />
      <feComposite
         id="feComposite40-70"
         result="composite2"
         operator="over"
         in2="offset"
         in="SourceGraphic" />
    </filter>
    <filter
       id="filter66-39"
       inkscape:label="Drop Shadow"
       style="color-interpolation-filters:sRGB">
      <feFlood
         id="feFlood56-8"
         result="flood"
         flood-color="rgb(255,255,255)"
         flood-opacity="1" />
      <feComposite
         id="feComposite58-6"
         result="composite1"
         operator="in"
         in2="SourceGraphic"
         in="flood" />
      <feGaussianBlur
         id="feGaussianBlur60-5"
         result="blur"
         stdDeviation="19.6"
         in="composite1" />
      <feOffset
         id="feOffset62-7"
         result="offset"
         dy="4.57967e-15"
         dx="4.57967e-15" />
      <feComposite
         id="feComposite64-6"
         result="composite2"
         operator="over"
         in2="offset"
         in="SourceGraphic" />
    </filter>
    <style
       id="style881-3">.cls-1,.cls-4{fill:#2ca1fd;}.cls-2{fill:#7eb532;}.cls-3{fill:#1e5e96;}.cls-4{font-size:186.51px;font-family:NexaBold, Nexa Bold;}.cls-5{letter-spacing:-0.02em;}.cls-6{font-size:311.56px;fill:#042777;font-family:Lato-Bold, Lato;font-weight:700;}</style>
    <filter
       style="color-interpolation-filters:sRGB"
       inkscape:label="Drop Shadow"
       id="filter1393-8">
      <feFlood
         flood-opacity="1"
         flood-color="rgb(255,255,255)"
         result="flood"
         id="feFlood1383-0" />
      <feComposite
         in="flood"
         in2="SourceGraphic"
         operator="in"
         result="composite1"
         id="feComposite1385-2" />
      <feGaussianBlur
         in="composite1"
         stdDeviation="28.2"
         result="blur"
         id="feGaussianBlur1387-4" />
      <feOffset
         dx="6"
         dy="6"
         result="offset"
         id="feOffset1389-8" />
      <feComposite
         in="SourceGraphic"
         in2="offset"
         operator="over"
         result="composite2"
         id="feComposite1391-3" />
    </filter>
    <filter
       style="color-interpolation-filters:sRGB"
       inkscape:label="Drop Shadow"
       id="filter42-9">
      <feFlood
         flood-opacity="1"
         flood-color="rgb(255,255,255)"
         result="flood"
         id="feFlood32-0" />
      <feComposite
         in="flood"
         in2="SourceGraphic"
         operator="in"
         result="composite1"
         id="feComposite34-5" />
      <feGaussianBlur
         in="composite1"
         stdDeviation="28.2"
         result="blur"
         id="feGaussianBlur36-2" />
      <feOffset
         dx="6"
         dy="6"
         result="offset"
         id="feOffset38-2" />
      <feComposite
         in="SourceGraphic"
         in2="offset"
         operator="over"
         result="composite2"
         id="feComposite40-7" />
    </filter>
    <filter
       style="color-interpolation-filters:sRGB"
       inkscape:label="Drop Shadow"
       id="filter66-3">
      <feFlood
         flood-opacity="1"
         flood-color="rgb(255,255,255)"
         result="flood"
         id="feFlood56-7" />
      <feComposite
         in="flood"
         in2="SourceGraphic"
         operator="in"
         result="composite1"
         id="feComposite58-9" />
      <feGaussianBlur
         in="composite1"
         stdDeviation="19.6"
         result="blur"
         id="feGaussianBlur60-0" />
      <feOffset
         dx="4.57967e-15"
         dy="4.57967e-15"
         result="offset"
         id="feOffset62-2" />
      <feComposite
         in="SourceGraphic"
         in2="offset"
         operator="over"
         result="composite2"
         id="feComposite64-3" />
    </filter>
  </defs>
  <sodipodi:namedview
     id="base"
     pagecolor="#ffffff"
     bordercolor="#666666"
     borderopacity="1.0"
     inkscape:pageopacity="0.0"
     inkscape:pageshadow="2"
     inkscape:zoom="0.32"
     inkscape:cx="75.215003"
     inkscape:cy="-159.48333"
     inkscape:document-units="mm"
     inkscape:current-layer="layer1"
     showgrid="false"
     inkscape:snap-bbox="true"
     inkscape:bbox-paths="true"
     inkscape:bbox-nodes="true"
     inkscape:snap-bbox-edge-midpoints="true"
     inkscape:snap-bbox-midpoints="true"
     inkscape:object-paths="true"
     inkscape:snap-intersection-paths="true"
     inkscape:snap-smooth-nodes="true"
     inkscape:snap-midpoints="true"
     inkscape:snap-object-midpoints="true"
     inkscape:snap-center="true"
     inkscape:snap-text-baseline="true"
     inkscape:snap-page="true"
     inkscape:window-width="1873"
     inkscape:window-height="1036"
     inkscape:window-x="47"
     inkscape:window-y="280"
     inkscape:window-maximized="1"
     inkscape:snap-global="false" />
  <metadata
     id="metadata5">
    <rdf:RDF>
      <cc:Work
         rdf:about="">
        <dc:format>image/svg+xml</dc:format>
        <dc:type
           rdf:resource="http://purl.org/dc/dcmitype/StillImage" />
        <dc:title />
      </cc:Work>
    </rdf:RDF>
  </metadata>
  <g
     inkscape:label="Layer 1"
     inkscape:groupmode="layer"
     id="layer1"
     transform="translate(-654.24309,-173.08793)">
    <path
       id="path3266"
       d="m 730.82785,173.08793 -75.22217,61.79582 h 88.19962 z"
       style="fill:#2ea3fd;fill-opacity:1;stroke:none;stroke-width:0.20465897px;stroke-linecap:butt;stroke-linejoin:miter;stroke-opacity:1"
       inkscape:connector-curvature="0" />
    <path
       id="path3268"
       d="m 655.60568,234.88375 72.79704,27.66293 -18.01631,-27.66293 z"
       style="fill:#2064a1;fill-opacity:1;stroke:none;stroke-width:0.20465897px;stroke-linecap:butt;stroke-linejoin:miter;stroke-opacity:1"
       inkscape:connector-curvature="0"
       sodipodi:nodetypes="cccc" />
    <path
       id="path3270"
       d="m 710.38641,234.88375 18.01631,27.66293 23.03453,8.67802 -7.63195,-36.34095 z"
       style="fill:#a5d24f;fill-opacity:1;stroke:none;stroke-width:0.20465897px;stroke-linecap:butt;stroke-linejoin:miter;stroke-opacity:1"
       inkscape:connector-curvature="0"
       sodipodi:nodetypes="ccccc" />
    <g
       aria-label="MAPID"
       style="font-style:normal;font-weight:normal;font-size:31.23206139px;line-height:1.25;font-family:sans-serif;letter-spacing:0px;word-spacing:0px;fill:#2ea3fd;fill-opacity:1;stroke:none;stroke-width:0.78080148"
       id="text1243">
      <path
         d="m 654.24309,296.98117 h 4.37248 v -14.17936 l 5.87163,14.17936 h 3.3106 l 5.8404,-14.17936 v 14.17936 h 4.37248 v -21.79998 h -4.93466 l -6.93352,16.20944 -6.93352,-16.20944 h -4.96589 z"
         style="font-style:normal;font-variant:normal;font-weight:600;font-stretch:normal;font-family:Poppins;-inkscape-font-specification:'Poppins Semi-Bold';fill:#2ea3fd;fill-opacity:1;stroke-width:0.78080148"
         id="path1068" />
      <path
         d="m 697.10714,296.98117 h 4.62234 l -7.83924,-21.83121 h -5.09083 l -7.83925,21.83121 h 4.59112 l 1.43667,-4.15386 h 8.68251 z m -2.6235,-7.65185 h -6.30887 l 3.15444,-9.11977 z"
         style="font-style:normal;font-variant:normal;font-weight:600;font-stretch:normal;font-family:Poppins;-inkscape-font-specification:'Poppins Semi-Bold';fill:#2ea3fd;fill-opacity:1;stroke-width:0.78080148"
         id="path1070" />
      <path
         d="m 709.06267,285.08176 v -6.34011 h 3.46676 c 2.46733,0 3.56046,1.18682 3.56046,3.18567 0,1.93638 -1.09313,3.15444 -3.56046,3.15444 z m 11.52463,-3.15444 c 0,-3.77908 -2.62349,-6.74613 -7.87048,-6.74613 h -8.02664 v 21.79998 h 4.37249 v -8.37019 h 3.65415 c 5.62177,0 7.87048,-3.37306 7.87048,-6.68366 z"
         style="font-style:normal;font-variant:normal;font-weight:600;font-stretch:normal;font-family:Poppins;-inkscape-font-specification:'Poppins Semi-Bold';fill:#2ea3fd;fill-opacity:1;stroke-width:0.78080148"
         id="path1072" />
      <path
         d="m 723.66122,296.98117 h 4.37249 v -21.79998 h -4.37249 z"
         style="font-style:normal;font-variant:normal;font-weight:600;font-stretch:normal;font-family:Poppins;-inkscape-font-specification:'Poppins Semi-Bold';fill:#2ea3fd;fill-opacity:1;stroke-width:0.78080148"
         id="path1074" />
      <path
         d="m 739.94386,275.18119 h -7.62062 v 21.79998 h 7.62062 c 6.96475,0 11.4934,-4.27879 11.4934,-10.86876 0,-6.62119 -4.52865,-10.93122 -11.4934,-10.93122 z m -3.24813,18.08337 v -14.39798 h 3.09197 c 4.59112,0 7.18338,2.71718 7.18338,7.24583 0,4.52865 -2.59226,7.15215 -7.18338,7.15215 z"
         style="font-style:normal;font-variant:normal;font-weight:600;font-stretch:normal;font-family:Poppins;-inkscape-font-specification:'Poppins Semi-Bold';fill:#2ea3fd;fill-opacity:1;stroke-width:0.78080148"
         id="path1076" />
    </g>
  </g>
</svg>
