{
	"_id": "5d4b878691552812234f7c29",
	"name": "Project Mapid",
	"description": "Kumpulan informasi geospatial di Indonesia",
	"username": "yacob89",
	"visible": "public",
	"createdAt": "2008-09-15T10:53:00.000Z",
	"members": [
		"yacob89",
		"machrus",
		"bagus",
		"pretty"
	],
	"layers": [{
		"_id": "5d899055b0fa4100073ff1b0",
		"createdAt": "2019-09-24T03:41:11.038Z",
		"name": "Kantor Polisi",
		"description": "Kantor",
		"layer_type": "symbol",
		"username": "yacob89",
		"features_count": 6,
		"subscriber": [

		],
		"geojson": {
			"config": {
				"color": "default",
				"icon": "undefined"
			},
			"type": "FeatureCollection",
			"features": [{
					"type": "Feature",
					"id": "kantor_polisi_point.1",
					"geometry": {
						"type": "Point",
						"coordinates": [
							106.85439997637182,
							-6.1993645039254694
						]
					},
					"geometry_name": "the_geom",
					"properties": {
						"NAMA": "POLSEK MATRAMAN",
						"ID_ASSET": "001317210000201001000",
						"SECTOR": "LINTAS SEKTOR",
						"SUBSECTOR": "PEMERINTAHAN",
						"ASSET": "FASILITAS KEPOLISIAN",
						"JALAN": "JL MATRAMAN RAYA NO 11",
						"ID_KEL": 3172100002,
						"KELURAHAN": "PAL MERIEM",
						"AREA_M2": 737,
						"KECAMATAN": "MATRAMAN",
						"KOTA": "JAKARTA TIMUR",
						"RW": "001",
						"ORIG_FID": 0,
						"mapid_id": 0,
						"icon-image": "square-outline",
						"yearCount": {
							"2015": 420,
							"2016": 521,
							"2017": 200,
							"2018": 394
						}
					}
				},
				{
					"type": "Feature",
					"id": "kantor_polisi_point.2",
					"geometry": {
						"type": "Point",
						"coordinates": [
							106.87315893765086,
							-6.204108086222399
						]
					},
					"geometry_name": "the_geom",
					"properties": {
						"NAMA": "KANTOR POLISI SUBSEKTOR KEBON SIRIH",
						"ID_ASSET": "001317210000528158000",
						"SECTOR": "LINTAS SEKTOR",
						"SUBSECTOR": "PEMERINTAHAN",
						"ASSET": "FASILITAS KEPOLISIAN",
						"JALAN": "JL AHMAD YANI NO",
						"ID_KEL": 3172100005,
						"KELURAHAN": "UTAN KAYU SELATAN",
						"AREA_M2": 165,
						"KECAMATAN": "MATRAMAN",
						"KOTA": "JAKARTA TIMUR",
						"RW": "005",
						"ORIG_FID": 1,
						"mapid_id": 1,
						"icon-image": "education",
						"yearCount": {
							"2015": 219,
							"2016": 321,
							"2017": 425,
							"2018": 111
						}
					}
				},
				{
					"type": "Feature",
					"id": "kantor_polisi_point.3",
					"geometry": {
						"type": "Point",
						"coordinates": [
							106.84678024934831,
							-6.180974972715447
						]
					},
					"geometry_name": "the_geom",
					"properties": {
						"NAMA": "POLSEK SENEN",
						"ID_ASSET": "001317303000310035000",
						"SECTOR": "LINTAS SEKTOR",
						"SUBSECTOR": "PEMERINTAHAN",
						"ASSET": "FASILITAS KEPOLISIAN",
						"JALAN": "JL KRAMAT PULO GG II",
						"ID_KEL": 3173030003,
						"KELURAHAN": "KRAMAT",
						"AREA_M2": 116,
						"KECAMATAN": "SENEN",
						"KOTA": "JAKARTA PUSAT",
						"RW": "003",
						"ORIG_FID": 2,
						"mapid_id": 2,
						"icon-image": "gas-station",
						"yearCount": {
							"2015": 100,
							"2016": 99,
							"2017": 75,
							"2018": 600
						}

					}
				},
				{
					"type": "Feature",
					"id": "kantor_polisi_point.4",
					"geometry": {
						"type": "Point",
						"coordinates": [
							106.83921999249647,
							-6.179585762247814
						]
					},
					"geometry_name": "the_geom",
					"properties": {
						"NAMA": "MABES POLRI",
						"ID_ASSET": "001317303000505002000",
						"SECTOR": "LINTAS SEKTOR",
						"SUBSECTOR": "PEMERINTAHAN",
						"ASSET": "FASILITAS KEPOLISIAN",
						"JALAN": "JL PRAPATAN",
						"ID_KEL": 3173030005,
						"KELURAHAN": "SENEN",
						"AREA_M2": 11750,
						"KECAMATAN": "SENEN",
						"KOTA": "JAKARTA PUSAT",
						"RW": "003",
						"ORIG_FID": 3,
						"mapid_id": 3,
						"icon-image": "monument",
						"yearCount": {
							"2015": 379,
							"2016": 270,
							"2017": 99,
							"2018": 125
						}
					}
				},
				{
					"type": "Feature",
					"id": "kantor_polisi_point.5",
					"geometry": {
						"type": "Point",
						"coordinates": [
							106.85175143577719,
							-6.178909339307344
						]
					},
					"geometry_name": "the_geom",
					"properties": {
						"NAMA": "POLSEK JOHAR BARU",
						"ID_ASSET": "001317304000310092000",
						"SECTOR": "LINTAS SEKTOR",
						"SUBSECTOR": "PEMERINTAHAN",
						"ASSET": "FASILITAS KEPOLISIAN",
						"JALAN": "JL NARADA UJUNG",
						"ID_KEL": 3173040003,
						"KELURAHAN": "TANAH TINGGI",
						"AREA_M2": 279,
						"KECAMATAN": "JOHAR BARU",
						"KOTA": "JAKARTA PUSAT",
						"RW": "005",
						"ORIG_FID": 4,
						"mapid_id": 4,
						"icon-image": "monument",
						"yearCount": {
							"2015": 210,
							"2016": 301,
							"2017": 111,
							"2018": 119
						}
					}
				},
				{
					"type": "Feature",
					"id": "kantor_polisi_point.6",
					"geometry": {
						"type": "Point",
						"coordinates": [
							106.84954076232216,
							-6.183503626350185
						]
					},
					"geometry_name": "the_geom",
					"properties": {
						"NAMA": "POLSEK JOHAR BARU",
						"ID_ASSET": "001317304000329023000",
						"SECTOR": "LINTAS SEKTOR",
						"SUBSECTOR": "PEMERINTAHAN",
						"ASSET": "FASILITAS KEPOLISIAN",
						"JALAN": "JL KRAMAT PULO GUNDUL NO.98",
						"ID_KEL": 3173040003,
						"KELURAHAN": "TANAH TINGGI",
						"AREA_M2": 2128,
						"KECAMATAN": "JOHAR BARU",
						"KOTA": "JAKARTA PUSAT",
						"RW": "013",
						"ORIG_FID": 5,
						"mapid_id": 5,
						"icon-image": "monument",
						"yearCount": {
							"2015": 640,
							"2016": 329,
							"2017": 224,
							"2018": 333
						}
					}
				},
				{
					"type": "Feature",
					"id": "kantor_polisi_point.7",
					"geometry": {
						"type": "Point",
						"coordinates": [
							106.86138711591747,
							-6.17326061025626
						]
					},
					"geometry_name": "the_geom",
					"properties": {
						"NAMA": "POLSEK METRO CEMP PUTIH BARAT",
						"ID_ASSET": "001317305000305009000",
						"SECTOR": "LINTAS SEKTOR",
						"SUBSECTOR": "PEMERINTAHAN",
						"ASSET": "FASILITAS KEPOLISIAN",
						"JALAN": "JL SEOPRAPTO, LET JEND",
						"ID_KEL": 3173050003,
						"KELURAHAN": "CEMPAKA PUTIH BARAT",
						"AREA_M2": 1203,
						"KECAMATAN": "CEMPAKA PUTIH",
						"KOTA": "JAKARTA PUSAT",
						"RW": "003",
						"ORIG_FID": 6,
						"mapid_id": 6,
						"icon-image": "monument",
						"yearCount": {
							"2015": 299,
							"2016": 122,
							"2017": 401,
							"2018": 302
						}
					}
				},
				{
					"type": "Feature",
					"id": "kantor_polisi_point.8",
					"geometry": {
						"type": "Point",
						"coordinates": [
							106.85516057707503,
							-6.159686986931851
						]
					},
					"geometry_name": "the_geom",
					"properties": {
						"NAMA": "KANTOR POLISI BENDUNGAN JAGO",
						"ID_ASSET": "001317306000614121000",
						"SECTOR": "LINTAS SEKTOR",
						"SUBSECTOR": "PEMERINTAHAN",
						"ASSET": "FASILITAS KEPOLISIAN",
						"JALAN": "JL.KEMAYORAN GEMPOL",
						"ID_KEL": 3173060006,
						"KELURAHAN": "KEBON KOSONG",
						"AREA_M2": 475,
						"KECAMATAN": "KEMAYORAN",
						"KOTA": "JAKARTA PUSAT",
						"RW": "006",
						"ORIG_FID": 7,
						"mapid_id": 7,
						"icon-image": "monument",
						"yearCount": {
							"2015": 322,
							"2016": 476,
							"2017": 122,
							"2018": 97
						}
					}
				},
				{
					"type": "Feature",
					"id": "kantor_polisi_point.9",
					"geometry": {
						"type": "Point",
						"coordinates": [
							106.84701741846415,
							-6.156903695009977
						]
					},
					"geometry_name": "the_geom",
					"properties": {
						"NAMA": "KANTOR POLISI / DP3KK",
						"ID_ASSET": "001317306000806103000",
						"SECTOR": "LINTAS SEKTOR",
						"SUBSECTOR": "PEMERINTAHAN",
						"ASSET": "FASILITAS KEPOLISIAN",
						"JALAN": "ASRAMA POLRI KEMAYORAN NO.  20",
						"ID_KEL": 3173060008,
						"KELURAHAN": "GUNUNG SAHARI SELATAN",
						"AREA_M2": 1276,
						"KECAMATAN": "KEMAYORAN",
						"KOTA": "JAKARTA PUSAT",
						"RW": "009",
						"ORIG_FID": 8,
						"mapid_id": 8,
						"icon-image": "monument",
						"yearCount": {
							"2015": 120,
							"2016": 100,
							"2017": 332,
							"2018": 96
						}
					}
				},
				{
					"type": "Feature",
					"id": "kantor_polisi_point.10",
					"geometry": {
						"type": "Point",
						"coordinates": [
							106.83903353297046,
							-6.170462024372014
						]
					},
					"geometry_name": "the_geom",
					"properties": {
						"NAMA": "POLSEK SAWAH BESAR",
						"ID_ASSET": "001317307000123009000",
						"SECTOR": "LINTAS SEKTOR",
						"SUBSECTOR": "PEMERINTAHAN",
						"ASSET": "FASILITAS KEPOLISIAN",
						"JALAN": "JL DR WAHIDIN NO. 08",
						"ID_KEL": 3173070001,
						"KELURAHAN": "PASAR BARU",
						"AREA_M2": 2110,
						"KECAMATAN": "SAWAH BESAR",
						"KOTA": "JAKARTA PUSAT",
						"RW": "008",
						"ORIG_FID": 9,
						"mapid_id": 9,
						"icon-image": "monument",
						"yearCount": {
							"2015": 420,
							"2016": 329,
							"2017": 211,
							"2018": 328
						}
					}
				},
				{
					"type": "Feature",
					"id": "kantor_polisi_point.11",
					"geometry": {
						"type": "Point",
						"coordinates": [
							106.8075283297621,
							-6.166130493325788
						]
					},
					"geometry_name": "the_geom",
					"properties": {
						"NAMA": "KANTOR POLISI ROXY",
						"ID_ASSET": "001317308000108050000",
						"SECTOR": "LINTAS SEKTOR",
						"SUBSECTOR": "PEMERINTAHAN",
						"ASSET": "FASILITAS KEPOLISIAN",
						"JALAN": "JL KH HASYIM ASHARI",
						"ID_KEL": 3173080001,
						"KELURAHAN": "CIDENG",
						"AREA_M2": 1450,
						"KECAMATAN": "GAMBIR",
						"KOTA": "JAKARTA PUSAT",
						"RW": "005",
						"ORIG_FID": 10,
						"mapid_id": 10,
						"icon-image": "monument",
						"yearCount": {
							"2015": 119,
							"2016": 201,
							"2017": 278,
							"2018": 190
						}
					}
				},
				{
					"type": "Feature",
					"id": "kantor_polisi_point.12",
					"geometry": {
						"type": "Point",
						"coordinates": [
							106.81177662537064,
							-6.181004728827024
						]
					},
					"geometry_name": "the_geom",
					"properties": {
						"NAMA": "POLSEK METRO GAMBIR",
						"ID_ASSET": "001317308000124113000",
						"SECTOR": "LINTAS SEKTOR",
						"SUBSECTOR": "PEMERINTAHAN",
						"ASSET": "FASILITAS KEPOLISIAN",
						"JALAN": "JL CIDENG BARAT DALAM",
						"ID_KEL": 3173080001,
						"KELURAHAN": "CIDENG",
						"AREA_M2": 3609,
						"KECAMATAN": "GAMBIR",
						"KOTA": "JAKARTA PUSAT",
						"RW": "010",
						"ORIG_FID": 11,
						"mapid_id": 11,
						"icon-image": "monument",
						"yearCount": {
							"2015": 421,
							"2016": 109,
							"2017": 287,
							"2018": 109
						}
					}
				},
				{
					"type": "Feature",
					"id": "kantor_polisi_point.13",
					"geometry": {
						"type": "Point",
						"coordinates": [
							106.79805676597269,
							-6.195008888102748
						]
					},
					"geometry_name": "the_geom",
					"properties": {
						"NAMA": "POLRES JAKARTA BARAT",
						"ID_ASSET": "001317403000203048000",
						"SECTOR": "LINTAS SEKTOR",
						"SUBSECTOR": "PEMERINTAHAN",
						"ASSET": "FASILITAS KEPOLISIAN",
						"JALAN": "JL LETJEN S PARMAN NO 31",
						"ID_KEL": 3174030002,
						"KELURAHAN": "SLIPI",
						"AREA_M2": 3526,
						"KECAMATAN": "PALMERAH",
						"KOTA": "JAKARTA BARAT",
						"RW": "003",
						"ORIG_FID": 12,
						"mapid_id": 12,
						"icon-image": "monument",
						"yearCount": {
							"2015": 199,
							"2016": 210,
							"2017": 309,
							"2018": 198
						}
					}
				},
				{
					"type": "Feature",
					"id": "kantor_polisi_point.14",
					"geometry": {
						"type": "Point",
						"coordinates": [
							106.80298727457713,
							-6.194872794309621
						]
					},
					"geometry_name": "the_geom",
					"properties": {
						"NAMA": "BRIMOB POLDA METRO JAYA",
						"ID_ASSET": "001317403000208001000",
						"SECTOR": "LINTAS SEKTOR",
						"SUBSECTOR": "PEMERINTAHAN",
						"ASSET": "FASILITAS KEPOLISIAN",
						"JALAN": "JL KS TUBUN III NO",
						"ID_KEL": 3174030002,
						"KELURAHAN": "SLIPI",
						"AREA_M2": 22639,
						"KECAMATAN": "PALMERAH",
						"KOTA": "JAKARTA BARAT",
						"RW": "006",
						"ORIG_FID": 13,
						"mapid_id": 13,
						"icon-image": "monument",
						"yearCount": {
							"2015": 405,
							"2016": 519,
							"2017": 333,
							"2018": 267
						}
					}
				},
				{
					"type": "Feature",
					"id": "kantor_polisi_point.15",
					"geometry": {
						"type": "Point",
						"coordinates": [
							106.72918539381546,
							-6.146045828229768
						]
					},
					"geometry_name": "the_geom",
					"properties": {
						"NAMA": "POLSEK CENGKARENG",
						"ID_ASSET": "001317407000536162000",
						"SECTOR": "LINTAS SEKTOR",
						"SUBSECTOR": "PEMERINTAHAN",
						"ASSET": "FASILITAS KEPOLISIAN",
						"JALAN": "JL KAMAL RAYA",
						"ID_KEL": 3174070005,
						"KELURAHAN": "CENGKARENG TIMUR",
						"AREA_M2": 284,
						"KECAMATAN": "CENGKARENG",
						"KOTA": "JAKARTA BARAT",
						"RW": "008",
						"ORIG_FID": 14,
						"mapid_id": 14,
						"icon-image": "monument",
						"yearCount": {
							"2015": 420,
							"2016": 329,
							"2017": 222,
							"2018": 125
						}
					}
				},
				{
					"type": "Feature",
					"id": "kantor_polisi_point.16",
					"geometry": {
						"type": "Point",
						"coordinates": [
							106.73839955798482,
							-6.15296766083129
						]
					},
					"geometry_name": "the_geom",
					"properties": {
						"NAMA": "SAMSAT",
						"ID_ASSET": "001317407000551008000",
						"SECTOR": "LINTAS SEKTOR",
						"SUBSECTOR": "PEMERINTAHAN",
						"ASSET": "FASILITAS KEPOLISIAN",
						"JALAN": "JL DAAN MOGOT NO.12",
						"ID_KEL": 3174070005,
						"KELURAHAN": "CENGKARENG TIMUR",
						"AREA_M2": 23305,
						"KECAMATAN": "CENGKARENG",
						"KOTA": "JAKARTA BARAT",
						"RW": "003",
						"ORIG_FID": 15,
						"mapid_id": 15,
						"icon-image": "monument",
						"yearCount": {
							"2015": 198,
							"2016": 421,
							"2017": 222,
							"2018": 298
						}
					}
				},
				{
					"type": "Feature",
					"id": "kantor_polisi_point.17",
					"geometry": {
						"type": "Point",
						"coordinates": [
							106.71895032869666,
							-6.095573283082943
						]
					},
					"geometry_name": "the_geom",
					"properties": {
						"NAMA": "KANTOR POLISI KAMAL MUARA",
						"ID_ASSET": "001317501000107019000",
						"SECTOR": "LINTAS SEKTOR",
						"SUBSECTOR": "PEMERINTAHAN",
						"ASSET": "FASILITAS KEPOLISIAN",
						"JALAN": "JL. KAMAL MUARA NO.",
						"ID_KEL": 3175010001,
						"KELURAHAN": "KAMAL MUARA",
						"AREA_M2": 175,
						"KECAMATAN": "PENJARINGAN",
						"KOTA": "JAKARTA UTARA",
						"RW": "001",
						"ORIG_FID": 16,
						"mapid_id": 16,
						"icon-image": "monument",
						"yearCount": {
							"2015": 200,
							"2016": 323,
							"2017": 286,
							"2018": 198
						}
					}
				},
				{
					"type": "Feature",
					"id": "kantor_polisi_point.18",
					"geometry": {
						"type": "Point",
						"coordinates": [
							106.77356848925062,
							-6.108846856130236
						]
					},
					"geometry_name": "the_geom",
					"properties": {
						"NAMA": "KANTOR POLISI",
						"ID_ASSET": "001317501000502038000",
						"SECTOR": "LINTAS SEKTOR",
						"SUBSECTOR": "PEMERINTAHAN",
						"ASSET": "FASILITAS KEPOLISIAN",
						"JALAN": "JL. KOMP NELAYAN MUARA ANGKE NO. -",
						"ID_KEL": 3175010005,
						"KELURAHAN": "PLUIT",
						"AREA_M2": 790,
						"KECAMATAN": "PENJARINGAN",
						"KOTA": "JAKARTA UTARA",
						"RW": "011",
						"ORIG_FID": 17,
						"mapid_id": 17,
						"icon-image": "monument",
						"yearCount": {
							"2015": 200,
							"2016": 321,
							"2017": 425,
							"2018": 111
						}
					}
				},
				{
					"type": "Feature",
					"id": "kantor_polisi_point.19",
					"geometry": {
						"type": "Point",
						"coordinates": [
							106.79034149590615,
							-6.103135988093217
						]
					},
					"geometry_name": "the_geom",
					"properties": {
						"NAMA": "KANTOR POLISI",
						"ID_ASSET": "001317501000516058000",
						"SECTOR": "LINTAS SEKTOR",
						"SUBSECTOR": "PEMERINTAHAN",
						"ASSET": "FASILITAS KEPOLISIAN",
						"JALAN": "JL. PANTAI MUTIARA BLOK 5 NO. -",
						"ID_KEL": 3175010005,
						"KELURAHAN": "PLUIT",
						"AREA_M2": 6898,
						"KECAMATAN": "PENJARINGAN",
						"KOTA": "JAKARTA UTARA",
						"RW": "016",
						"ORIG_FID": 18,
						"mapid_id": 18,
						"icon-image": "monument",
						"yearCount": {
							"2015": 245,
							"2016": 187,
							"2017": 67,
							"2018": 199
						}
					}
				},
				{
					"type": "Feature",
					"id": "kantor_polisi_point.20",
					"geometry": {
						"type": "Point",
						"coordinates": [
							106.8005868691959,
							-6.124622926608671
						]
					},
					"geometry_name": "the_geom",
					"properties": {
						"NAMA": "POLSEK PENJARINGAN",
						"ID_ASSET": "001317501000522042000",
						"SECTOR": "LINTAS SEKTOR",
						"SUBSECTOR": "PEMERINTAHAN",
						"ASSET": "FASILITAS KEPOLISIAN",
						"JALAN": "JL. PLUIT TIMUR BLOK M",
						"ID_KEL": 3175010005,
						"KELURAHAN": "PLUIT",
						"AREA_M2": 3792,
						"KECAMATAN": "PENJARINGAN",
						"KOTA": "JAKARTA UTARA",
						"RW": "009",
						"ORIG_FID": 19,
						"mapid_id": 19,
						"icon-image": "monument",
						"yearCount": {
							"2015": 99,
							"2016": 117,
							"2017": 157,
							"2018": 101
						}
					}
				},
				{
					"type": "Feature",
					"id": "kantor_polisi_point.21",
					"geometry": {
						"type": "Point",
						"coordinates": [
							106.82261543631483,
							-6.133106643405737
						]
					},
					"geometry_name": "the_geom",
					"properties": {
						"NAMA": "KANTOR POLISI",
						"ID_ASSET": "001317502000315136000",
						"SECTOR": "LINTAS SEKTOR",
						"SUBSECTOR": "PEMERINTAHAN",
						"ASSET": "FASILITAS KEPOLISIAN",
						"JALAN": "JL KP BANDAN No. 80",
						"ID_KEL": 3175020003,
						"KELURAHAN": "ANCOL",
						"AREA_M2": 1719,
						"KECAMATAN": "PADEMANGAN",
						"KOTA": "JAKARTA UTARA",
						"RW": "004",
						"ORIG_FID": 20,
						"mapid_id": 20,
						"icon-image": "monument",
						"yearCount": {
							"2015": 111,
							"2016": 123,
							"2017": 554,
							"2018": 111
						}
					}
				},
				{
					"type": "Feature",
					"id": "kantor_polisi_point.22",
					"geometry": {
						"type": "Point",
						"coordinates": [
							106.86999569874486,
							-6.134711002600029
						]
					},
					"geometry_name": "the_geom",
					"properties": {
						"NAMA": "POLRES",
						"ID_ASSET": "001317503000154001000",
						"SECTOR": "LINTAS SEKTOR",
						"SUBSECTOR": "PEMERINTAHAN",
						"ASSET": "FASILITAS KEPOLISIAN",
						"JALAN": "JL NUSANTARA SELATAN",
						"ID_KEL": 3175030001,
						"KELURAHAN": "SUNTER AGUNG",
						"AREA_M2": 1755,
						"KECAMATAN": "TANJUNG PRIOK",
						"KOTA": "JAKARTA UTARA",
						"RW": "015",
						"ORIG_FID": 21,
						"mapid_id": 21,
						"icon-image": "monument",
						"yearCount": {
							"2015": 454,
							"2016": 387,
							"2017": 467,
							"2018": 366
						}
					}
				},
				{
					"type": "Feature",
					"id": "kantor_polisi_point.23",
					"geometry": {
						"type": "Point",
						"coordinates": [
							106.88022884388369,
							-6.115111991714764
						]
					},
					"geometry_name": "the_geom",
					"properties": {
						"NAMA": "KANTOR POLISI/RESORT",
						"ID_ASSET": "001317503000503035000",
						"SECTOR": "LINTAS SEKTOR",
						"SUBSECTOR": "PEMERINTAHAN",
						"ASSET": "FASILITAS KEPOLISIAN",
						"JALAN": "JL GORONTALO",
						"ID_KEL": 3175030005,
						"KELURAHAN": "SUNGAI BAMBU",
						"AREA_M2": 1137,
						"KECAMATAN": "TANJUNG PRIOK",
						"KOTA": "JAKARTA UTARA",
						"RW": "001",
						"ORIG_FID": 22,
						"mapid_id": 22,
						"icon-image": "monument",
						"yearCount": {
							"2015": 200,
							"2016": 205,
							"2017": 201,
							"2018": 465
						}
					}
				},
				{
					"type": "Feature",
					"id": "kantor_polisi_point.24",
					"geometry": {
						"type": "Point",
						"coordinates": [
							106.88212128497689,
							-6.113469849326356
						]
					},
					"geometry_name": "the_geom",
					"properties": {
						"NAMA": "POLRES METRO 702",
						"ID_ASSET": "001317503000503100000",
						"SECTOR": "LINTAS SEKTOR",
						"SUBSECTOR": "PEMERINTAHAN",
						"ASSET": "FASILITAS KEPOLISIAN",
						"JALAN": "JL GORONTALO",
						"ID_KEL": 3175030005,
						"KELURAHAN": "SUNGAI BAMBU",
						"AREA_M2": 2140,
						"KECAMATAN": "TANJUNG PRIOK",
						"KOTA": "JAKARTA UTARA",
						"RW": "001",
						"ORIG_FID": 23,
						"mapid_id": 23,
						"icon-image": "monument",
						"yearCount": {
							"2015": 200,
							"2016": 219,
							"2017": 477,
							"2018": 177
						}
					}
				},
				{
					"type": "Feature",
					"id": "kantor_polisi_point.25",
					"geometry": {
						"type": "Point",
						"coordinates": [
							106.88197232260072,
							-6.107465321795543
						]
					},
					"geometry_name": "the_geom",
					"properties": {
						"NAMA": "POLRES KPPP TANJUNG PRIUK",
						"ID_ASSET": "001317503000722035000",
						"SECTOR": "LINTAS SEKTOR",
						"SUBSECTOR": "PEMERINTAHAN",
						"ASSET": "FASILITAS KEPOLISIAN",
						"JALAN": "JL RAYA PELABUHAN",
						"ID_KEL": 3175020003,
						"KELURAHAN": "ANCOL",
						"AREA_M2": 2018,
						"KECAMATAN": "PADEMANGAN",
						"KOTA": "JAKARTA UTARA",
						"RW": "010",
						"ORIG_FID": 24,
						"mapid_id": 24,
						"icon-image": "monument",
						"yearCount": {
							"2015": 130,
							"2016": 256,
							"2017": 64,
							"2018": 199
						}
					}
				},
				{
					"type": "Feature",
					"id": "kantor_polisi_point.26",
					"geometry": {
						"type": "Point",
						"coordinates": [
							106.89832456868548,
							-6.130112977961382
						]
					},
					"geometry_name": "the_geom",
					"properties": {
						"NAMA": "KANTOR POLISI",
						"ID_ASSET": "001317504000114133000",
						"SECTOR": "LINTAS SEKTOR",
						"SUBSECTOR": "PEMERINTAHAN",
						"ASSET": "FASILITAS KEPOLISIAN",
						"JALAN": "JL PLUMPANG SEMPER RAYA",
						"ID_KEL": 3175040001,
						"KELURAHAN": "RAWABADAK SELATAN",
						"AREA_M2": 666,
						"KECAMATAN": "KOJA",
						"KOTA": "JAKARTA UTARA",
						"RW": "004",
						"ORIG_FID": 25,
						"mapid_id": 25,
						"icon-image": "monument",
						"yearCount": {
							"2015": 222,
							"2016": 333,
							"2017": 444,
							"2018": 276
						}
					}
				},
				{
					"type": "Feature",
					"id": "kantor_polisi_point.27",
					"geometry": {
						"type": "Point",
						"coordinates": [
							106.91666896585208,
							-6.1201029018750965
						]
					},
					"geometry_name": "the_geom",
					"properties": {
						"NAMA": "POL SUB SEKTOR TUGU",
						"ID_ASSET": "001317504000311049000",
						"SECTOR": "LINTAS SEKTOR",
						"SUBSECTOR": "PEMERINTAHAN",
						"ASSET": "FASILITAS KEPOLISIAN",
						"JALAN": "JL KRAMAT JAYA NO.51",
						"ID_KEL": 3175040003,
						"KELURAHAN": "TUGU UTARA",
						"AREA_M2": 4238,
						"KECAMATAN": "KOJA",
						"KOTA": "JAKARTA UTARA",
						"RW": "001",
						"ORIG_FID": 26,
						"mapid_id": 26,
						"icon-image": "monument",
						"yearCount": {
							"2015": 100,
							"2016": 221,
							"2017": 325,
							"2018": 226
						}
					}
				},
				{
					"type": "Feature",
					"id": "kantor_polisi_point.28",
					"geometry": {
						"type": "Point",
						"coordinates": [
							106.91442259376018,
							-6.121869298507974
						]
					},
					"geometry_name": "the_geom",
					"properties": {
						"NAMA": "POLSEK METRO JAYA",
						"ID_ASSET": "001317504000312129000",
						"SECTOR": "LINTAS SEKTOR",
						"SUBSECTOR": "PEMERINTAHAN",
						"ASSET": "FASILITAS KEPOLISIAN",
						"JALAN": "JL BHAYANGKARA NO.43",
						"ID_KEL": 3175040003,
						"KELURAHAN": "TUGU UTARA",
						"AREA_M2": 2723,
						"KECAMATAN": "KOJA",
						"KOTA": "JAKARTA UTARA",
						"RW": "001",
						"ORIG_FID": 27,
						"mapid_id": 27,
						"icon-image": "monument",
						"yearCount": {
							"2015": 425,
							"2016": 129,
							"2017": 210,
							"2018": 99
						}
					}
				},
				{
					"type": "Feature",
					"id": "kantor_polisi_point.29",
					"geometry": {
						"type": "Point",
						"coordinates": [
							106.91437926645402,
							-6.121470523693712
						]
					},
					"geometry_name": "the_geom",
					"properties": {
						"NAMA": "POLSEK KOJA",
						"ID_ASSET": "001317504000312130000",
						"SECTOR": "LINTAS SEKTOR",
						"SUBSECTOR": "PEMERINTAHAN",
						"ASSET": "FASILITAS KEPOLISIAN",
						"JALAN": "JL BHAYANGKARA",
						"ID_KEL": 3175040003,
						"KELURAHAN": "TUGU UTARA",
						"AREA_M2": 1163,
						"KECAMATAN": "KOJA",
						"KOTA": "JAKARTA UTARA",
						"RW": "001",
						"ORIG_FID": 28,
						"mapid_id": 28,
						"icon-image": "monument",
						"yearCount": {
							"2015": 123,
							"2016": 289,
							"2017": 126,
							"2018": 178
						}
					}
				},
				{
					"type": "Feature",
					"id": "kantor_polisi_point.30",
					"geometry": {
						"type": "Point",
						"coordinates": [
							106.89389473471398,
							-6.116774538344874
						]
					},
					"geometry_name": "the_geom",
					"properties": {
						"NAMA": "KAPOLRES/ SMARTENRI JK RATUWALU",
						"ID_ASSET": "001317504000501133000",
						"SECTOR": "LINTAS SEKTOR",
						"SUBSECTOR": "PEMERINTAHAN",
						"ASSET": "FASILITAS KEPOLISIAN",
						"JALAN": "JL MELUR DALAM NO 9",
						"ID_KEL": 3175040005,
						"KELURAHAN": "RAWABADAK UTARA",
						"AREA_M2": 5132,
						"KECAMATAN": "KOJA",
						"KOTA": "JAKARTA UTARA",
						"RW": "012",
						"ORIG_FID": 29,
						"mapid_id": 29,
						"icon-image": "monument",
						"yearCount": {
							"2015": 198,
							"2016": 321,
							"2017": 425,
							"2018": 111
						}
					}
				},
				{
					"type": "Feature",
					"id": "kantor_polisi_point.31",
					"geometry": {
						"type": "Point",
						"coordinates": [
							106.78929880221729,
							-6.173963717453491
						]
					},
					"geometry_name": "the_geom",
					"properties": {
						"NAMA": "POLSEK TANJUNG DUREN",
						"ID_ASSET": "001317404000203021000",
						"SECTOR": "LINTAS SEKTOR",
						"SUBSECTOR": "PEMERINTAHAN",
						"ASSET": "FASILITAS KEPOLISIAN",
						"JALAN": "JL. TANJUNG DUREN RAYA NO.",
						"ID_KEL": 3174040002,
						"KELURAHAN": "TANJUNG DUREN SELATAN",
						"AREA_M2": 1400,
						"KECAMATAN": "GROGOL PETAMBURAN",
						"KOTA": "JAKARTA BARAT",
						"RW": "005",
						"ORIG_FID": 30,
						"mapid_id": 30,
						"icon-image": "monument",
						"yearCount": {
							"2015": 199,
							"2016": 255,
							"2017": 321,
							"2018": 206
						}
					}
				},
				{
					"type": "Feature",
					"id": "kantor_polisi_point.32",
					"geometry": {
						"type": "Point",
						"coordinates": [
							106.7995876846359,
							-6.167490600914581
						]
					},
					"geometry_name": "the_geom",
					"properties": {
						"NAMA": "POLSUB SEKTOR TOMANG JAK-BAR",
						"ID_ASSET": "001317404000323009000",
						"SECTOR": "LINTAS SEKTOR",
						"SUBSECTOR": "PEMERINTAHAN",
						"ASSET": "FASILITAS KEPOLISIAN",
						"JALAN": "JL. RUMAH SAKIT SUMBER WARAS NO. 04",
						"ID_KEL": 3174040003,
						"KELURAHAN": "TOMANG",
						"AREA_M2": 621,
						"KECAMATAN": "GROGOL PETAMBURAN",
						"KOTA": "JAKARTA BARAT",
						"RW": "010",
						"ORIG_FID": 31,
						"mapid_id": 31,
						"icon-image": "monument",
						"yearCount": {
							"2015": 189,
							"2016": 179,
							"2017": 165,
							"2018": 200
						}
					}
				},
				{
					"type": "Feature",
					"id": "kantor_polisi_point.33",
					"geometry": {
						"type": "Point",
						"coordinates": [
							106.7697652622357,
							-6.2170542337217185
						]
					},
					"geometry_name": "the_geom",
					"properties": {
						"NAMA": "POLRI",
						"ID_ASSET": "001317402000105028000",
						"SECTOR": "LINTAS SEKTOR",
						"SUBSECTOR": "PEMERINTAHAN",
						"ASSET": "RUMAH DINAS",
						"JALAN": "JL PANJANG",
						"ID_KEL": 3174020001,
						"KELURAHAN": "SUKABUMI SELATAN",
						"AREA_M2": 163,
						"KECAMATAN": "KEBON JERUK",
						"KOTA": "JAKARTA BARAT",
						"RW": "006",
						"ORIG_FID": 32,
						"mapid_id": 32,
						"icon-image": "monument",
						"yearCount": {
							"2015": 244,
							"2016": 345,
							"2017": 411,
							"2018": 298
						}
					}
				},
				{
					"type": "Feature",
					"id": "kantor_polisi_point.34",
					"geometry": {
						"type": "Point",
						"coordinates": [
							106.7648805298002,
							-6.198921052177616
						]
					},
					"geometry_name": "the_geom",
					"properties": {
						"NAMA": "POLSEK METRO KEBON JERUK",
						"ID_ASSET": "001317402000410130000",
						"SECTOR": "LINTAS SEKTOR",
						"SUBSECTOR": "PEMERINTAHAN",
						"ASSET": "FASILITAS KEPOLISIAN",
						"JALAN": "JL KEBON JERUK",
						"ID_KEL": 3174020004,
						"KELURAHAN": "KEBON JERUK",
						"AREA_M2": 1150,
						"KECAMATAN": "KEBON JERUK",
						"KOTA": "JAKARTA BARAT",
						"RW": "001",
						"ORIG_FID": 33,
						"mapid_id": 33,
						"icon-image": "monument",
						"yearCount": {
							"2015": 219,
							"2016": 207,
							"2017": 312,
							"2018": 346
						}
					}
				},
				{
					"type": "Feature",
					"id": "kantor_polisi_point.35",
					"geometry": {
						"type": "Point",
						"coordinates": [
							106.87135920373251,
							-6.2465869423841385
						]
					},
					"geometry_name": "the_geom",
					"properties": {
						"NAMA": "KEPOLISIAN RI / BARESKRIM POLRI",
						"ID_ASSET": "001317205000718003000",
						"SECTOR": "LINTAS SEKTOR",
						"SUBSECTOR": "PEMERINTAHAN",
						"ASSET": "FASILITAS KEPOLISIAN",
						"JALAN": "JL. LETJEN MT HARYONO NO.",
						"ID_KEL": 3172050007,
						"KELURAHAN": "CAWANG",
						"AREA_M2": 6082,
						"KECAMATAN": "KRAMAT JATI",
						"KOTA": "JAKARTA TIMUR",
						"RW": "006",
						"ORIG_FID": 34,
						"mapid_id": 34,
						"icon-image": "monument",
						"yearCount": {
							"2015": 212,
							"2016": 345,
							"2017": 400,
							"2018": 267
						}
					}
				},
				{
					"type": "Feature",
					"id": "kantor_polisi_point.36",
					"geometry": {
						"type": "Point",
						"coordinates": [
							106.86535523857651,
							-6.3051477304278585
						]
					},
					"geometry_name": "the_geom",
					"properties": {
						"NAMA": "POLSEK PS REBO SUB SEKTOR GEDONG",
						"ID_ASSET": "001317201000518028000",
						"SECTOR": "LINTAS SEKTOR",
						"SUBSECTOR": "PEMERINTAHAN",
						"ASSET": "FASILITAS KEPOLISIAN",
						"JALAN": "JL TRIKORA NO",
						"ID_KEL": 3172010005,
						"KELURAHAN": "GEDONG",
						"AREA_M2": 176,
						"KECAMATAN": "PASAR REBO",
						"KOTA": "JAKARTA TIMUR",
						"RW": "002",
						"ORIG_FID": 35,
						"mapid_id": 35,
						"icon-image": "monument",
						"yearCount": {
							"2015": 123,
							"2016": 234,
							"2017": 213,
							"2018": 234
						}
					}
				},
				{
					"type": "Feature",
					"id": "kantor_polisi_point.37",
					"geometry": {
						"type": "Point",
						"coordinates": [
							106.89094584721833,
							-6.210484481468406
						]
					},
					"geometry_name": "the_geom",
					"properties": {
						"NAMA": "POLSEK PULOGADUNG",
						"ID_ASSET": "001317209000235039000",
						"SECTOR": "LINTAS SEKTOR",
						"SUBSECTOR": "PEMERINTAHAN",
						"ASSET": "FASILITAS KEPOLISIAN",
						"JALAN": "JL. CIPINANG BARU",
						"ID_KEL": 3172090002,
						"KELURAHAN": "CIPINANG",
						"AREA_M2": 3350,
						"KECAMATAN": "PULO GADUNG",
						"KOTA": "JAKARTA TIMUR",
						"RW": "006",
						"ORIG_FID": 36,
						"mapid_id": 36,
						"icon-image": "monument",
						"yearCount": {
							"2015": 234,
							"2016": 145,
							"2017": 419,
							"2018": 283
						}
					}
				},
				{
					"type": "Feature",
					"id": "kantor_polisi_point.38",
					"geometry": {
						"type": "Point",
						"coordinates": [
							106.80990580016311,
							-6.200404434555759
						]
					},
					"geometry_name": "the_geom",
					"properties": {
						"NAMA": "POLSEK TANAH ABANG",
						"ID_ASSET": "001317301000203077000",
						"SECTOR": "LINTAS SEKTOR",
						"SUBSECTOR": "PEMERINTAHAN",
						"ASSET": "FASILITAS KEPOLISIAN",
						"JALAN": "JL PEJOMPONGAN",
						"ID_KEL": 3173010002,
						"KELURAHAN": "BENDUNGAN HILIR",
						"AREA_M2": 784,
						"KECAMATAN": "TANAH ABANG",
						"KOTA": "JAKARTA PUSAT",
						"RW": "007",
						"ORIG_FID": 37,
						"mapid_id": 37,
						"icon-image": "monument",

						"yearCount": {
							"2015": 123,
							"2016": 323,
							"2017": 311,
							"2018": 98
						}
					}
				},
				{
					"type": "Feature",
					"id": "kantor_polisi_point.39",
					"geometry": {
						"type": "Point",
						"coordinates": [
							106.80992939473423,
							-6.2002333242897345
						]
					},
					"geometry_name": "the_geom",
					"properties": {
						"NAMA": "POLSEK TANAH ABANG",
						"ID_ASSET": "001317301000203078000",
						"SECTOR": "LINTAS SEKTOR",
						"SUBSECTOR": "PEMERINTAHAN",
						"ASSET": "FASILITAS KEPOLISIAN",
						"JALAN": "JL PEJOMPONGAN",
						"ID_KEL": 3173010002,
						"KELURAHAN": "BENDUNGAN HILIR",
						"AREA_M2": 50,
						"KECAMATAN": "TANAH ABANG",
						"KOTA": "JAKARTA PUSAT",
						"RW": "007",
						"ORIG_FID": 38,
						"mapid_id": 38,
						"icon-image": "monument",
						"yearCount": {
							"2015": 109,
							"2016": 325,
							"2017": 211,
							"2018": 218
						}
					}
				},
				{
					"type": "Feature",
					"id": "kantor_polisi_point.40",
					"geometry": {
						"type": "Point",
						"coordinates": [
							106.80199183187611,
							-6.152628158587114
						]
					},
					"geometry_name": "the_geom",
					"properties": {
						"NAMA": "KAPOLSEK TAMBORA",
						"ID_ASSET": "001317405000519099000",
						"SECTOR": "LINTAS SEKTOR",
						"SUBSECTOR": "PEMERINTAHAN",
						"ASSET": "FASILITAS KEPOLISIAN",
						"JALAN": "JL KRENDANG SELATAN GG I",
						"ID_KEL": 3174050005,
						"KELURAHAN": "KRENDANG",
						"AREA_M2": 2682,
						"KECAMATAN": "",
						"KOTA": "",
						"RW": "007",
						"ORIG_FID": 39,
						"mapid_id": 39,
						"icon-image": "monument",
						"yearCount": {
							"2015": 144,
							"2016": 231,
							"2017": 452,
							"2018": 278
						}
					}
				},
				{
					"type": "Feature",
					"id": "kantor_polisi_point.41",
					"geometry": {
						"type": "Point",
						"coordinates": [
							106.86093079671627,
							-6.189983293702977
						]
					},
					"geometry_name": "the_geom",
					"properties": {
						"NAMA": "RUTAN SALEMBA",
						"ID_ASSET": "001317305000109001000",
						"SECTOR": "LINTAS SEKTOR",
						"SUBSECTOR": "PEMERINTAHAN",
						"ASSET": "FASILITAS KEPOLISIAN",
						"JALAN": "JL. PERCETAKAN NEGARA",
						"ID_KEL": 3173050001,
						"KELURAHAN": "RAWA SARI",
						"AREA_M2": 0,
						"KECAMATAN": "",
						"KOTA": "",
						"RW": "004",
						"ORIG_FID": 40,
						"mapid_id": 40,
						"icon-image": "monument",
						"yearCount": {
							"2015": 204,
							"2016": 128,
							"2017": 111,
							"2018": 126
						}
					}
				},
				{
					"type": "Feature",
					"id": "kantor_polisi_point.42",
					"geometry": {
						"type": "Point",
						"coordinates": [
							106.8517351414626,
							-6.231484237524805
						]
					},
					"geometry_name": "the_geom",
					"properties": {
						"NAMA": "POLSEK Tebet",
						"ID_ASSET": "002317109000213272000",
						"SECTOR": "LINTAS SEKTOR",
						"SUBSECTOR": "PEMERINTAHAN",
						"ASSET": "PERKANTORAN PEMERINTAH",
						"JALAN": "",
						"ID_KEL": 3171090002,
						"KELURAHAN": "TEBET BARAT",
						"AREA_M2": 119,
						"KECAMATAN": "TEBET",
						"KOTA": "JAKARTA SELATAN",
						"RW": "007",
						"ORIG_FID": 41,
						"mapid_id": 41,
						"icon-image": "monument",
						"yearCount": {
							"2015": 123,
							"2016": 234,
							"2017": 97,
							"2018": 176
						}
					}
				},
				{
					"type": "Feature",
					"id": "kantor_polisi_point.43",
					"geometry": {
						"type": "Point",
						"coordinates": [
							106.83857241786379,
							-6.26755871324957
						]
					},
					"geometry_name": "the_geom",
					"properties": {
						"NAMA": "POLRI",
						"ID_ASSET": "001317102000605054000",
						"SECTOR": "LINTAS SEKTOR",
						"SUBSECTOR": "PEMERINTAHAN",
						"ASSET": "RUMAH DINAS",
						"JALAN": "KO.POLRI BLOK E-3",
						"ID_KEL": 3171020006,
						"KELURAHAN": "PEJATEN BARAT",
						"AREA_M2": 170,
						"KECAMATAN": "PASAR MINGGU",
						"KOTA": "JAKARTA SELATAN",
						"RW": "001",
						"ORIG_FID": 42,
						"mapid_id": 42,
						"icon-image": "monument",
						"yearCount": {
							"2015": 76,
							"2016": 99,
							"2017": 101,
							"2018": 321
						}
					}
				},
				{
					"type": "Feature",
					"id": "kantor_polisi_point.44",
					"geometry": {
						"type": "Point",
						"coordinates": [
							106.8386146222188,
							-6.268595666302666
						]
					},
					"geometry_name": "the_geom",
					"properties": {
						"NAMA": "POLRI",
						"ID_ASSET": "001317102000605070000",
						"SECTOR": "LINTAS SEKTOR",
						"SUBSECTOR": "LINGKUNGAN",
						"ASSET": "TANAH KOSONG",
						"JALAN": "JL SIAGA RAYA",
						"ID_KEL": 3171020006,
						"KELURAHAN": "PEJATEN BARAT",
						"AREA_M2": 1706,
						"KECAMATAN": "PASAR MINGGU",
						"KOTA": "JAKARTA SELATAN",
						"RW": "001",
						"ORIG_FID": 43,
						"mapid_id": 43,
						"icon-image": "monument",
						"yearCount": {
							"2015": 344,
							"2016": 315,
							"2017": 277,
							"2018": 217
						}
					}
				},
				{
					"type": "Feature",
					"id": "kantor_polisi_point.45",
					"geometry": {
						"type": "Point",
						"coordinates": [
							106.82306064499612,
							-6.271690886810159
						]
					},
					"geometry_name": "the_geom",
					"properties": {
						"NAMA": "KANTOR POLISI",
						"ID_ASSET": "001317102000627087000",
						"SECTOR": "LINTAS SEKTOR",
						"SUBSECTOR": "PEMERINTAHAN",
						"ASSET": "FASILITAS KEPOLISIAN",
						"JALAN": "COMPLEX IIAPCO",
						"ID_KEL": 3171020006,
						"KELURAHAN": "PEJATEN BARAT",
						"AREA_M2": 503,
						"KECAMATAN": "PASAR MINGGU",
						"KOTA": "JAKARTA SELATAN",
						"RW": "008",
						"ORIG_FID": 44,
						"mapid_id": 44,
						"icon-image": "monument",
						"yearCount": {
							"2015": 244,
							"2016": 345,
							"2017": 411,
							"2018": 298
						}
					}
				},
				{
					"type": "Feature",
					"id": "kantor_polisi_point.46",
					"geometry": {
						"type": "Point",
						"coordinates": [
							106.79332998184334,
							-6.282876005707645
						]
					},
					"geometry_name": "the_geom",
					"properties": {
						"NAMA": "POLSEK CILANDAK",
						"ID_ASSET": "001317103000303039000",
						"SECTOR": "LINTAS SEKTOR",
						"SUBSECTOR": "PEMERINTAHAN",
						"ASSET": "FASILITAS KEPOLISIAN",
						"JALAN": "JL CARINGIN UTARA NO 8-9",
						"ID_KEL": 3171030003,
						"KELURAHAN": "CILANDAK BARAT",
						"AREA_M2": 511,
						"KECAMATAN": "CILANDAK",
						"KOTA": "JAKARTA SELATAN",
						"RW": "010",
						"ORIG_FID": 45,
						"mapid_id": 45,
						"icon-image": "monument",
						"yearCount": {
							"2015": 244,
							"2016": 345,
							"2017": 411,
							"2018": 298
						}
					}
				},
				{
					"type": "Feature",
					"id": "kantor_polisi_point.47",
					"geometry": {
						"type": "Point",
						"coordinates": [
							106.79319468219984,
							-6.283157275108167
						]
					},
					"geometry_name": "the_geom",
					"properties": {
						"NAMA": "POLSEK CILANDAK",
						"ID_ASSET": "001317103000303130000",
						"SECTOR": "LINTAS SEKTOR",
						"SUBSECTOR": "PEMERINTAHAN",
						"ASSET": "FASILITAS KEPOLISIAN",
						"JALAN": "JL CARINGIN UTARA NO 8-9",
						"ID_KEL": 3171030003,
						"KELURAHAN": "CILANDAK BARAT",
						"AREA_M2": 779,
						"KECAMATAN": "CILANDAK",
						"KOTA": "JAKARTA SELATAN",
						"RW": "010",
						"ORIG_FID": 46,
						"mapid_id": 46,
						"icon-image": "monument",
						"yearCount": {
							"2015": 164,
							"2016": 144,
							"2017": 178,
							"2018": 218
						}
					}
				},
				{
					"type": "Feature",
					"id": "kantor_polisi_point.48",
					"geometry": {
						"type": "Point",
						"coordinates": [
							106.79354752302446,
							-6.269073297876982
						]
					},
					"geometry_name": "the_geom",
					"properties": {
						"NAMA": "SETKOM MITRA POLISI",
						"ID_ASSET": "001317103000412108000",
						"SECTOR": "LINTAS SEKTOR",
						"SUBSECTOR": "PEMERINTAHAN",
						"ASSET": "FASILITAS KEPOLISIAN",
						"JALAN": "JL MADRASAH I NO 29",
						"ID_KEL": 3171030004,
						"KELURAHAN": "GANDARIA SELATAN",
						"AREA_M2": 85,
						"KECAMATAN": "CILANDAK",
						"KOTA": "JAKARTA SELATAN",
						"RW": "004",
						"ORIG_FID": 47,
						"mapid_id": 47,
						"icon-image": "monument",
						"yearCount": {
							"2015": 164,
							"2016": 216,
							"2017": 266,
							"2018": 178
						}
					}
				},
				{
					"type": "Feature",
					"id": "kantor_polisi_point.49",
					"geometry": {
						"type": "Point",
						"coordinates": [
							106.78231462685837,
							-6.273410328039931
						]
					},
					"geometry_name": "the_geom",
					"properties": {
						"NAMA": "KANTOR POLISI",
						"ID_ASSET": "001317105000130105000",
						"SECTOR": "LINTAS SEKTOR",
						"SUBSECTOR": "PEMERINTAHAN",
						"ASSET": "FASILITAS KEPOLISIAN",
						"JALAN": "JL METRO PONDOK INDAH",
						"ID_KEL": 3171050001,
						"KELURAHAN": "PONDOK PINANG",
						"AREA_M2": 1852,
						"KECAMATAN": "KEBAYORAN LAMA",
						"KOTA": "JAKARTA SELATAN",
						"RW": "016",
						"ORIG_FID": 48,
						"mapid_id": 48,
						"icon-image": "monument",
						"yearCount": {
							"2015": 111,
							"2016": 123,
							"2017": 312,
							"2018": 222
						}
					}
				},
				{
					"type": "Feature",
					"id": "kantor_polisi_point.50",
					"geometry": {
						"type": "Point",
						"coordinates": [
							106.76882332161448,
							-6.287598157153175
						]
					},
					"geometry_name": "the_geom",
					"properties": {
						"NAMA": "SESPIMMA POLRI",
						"ID_ASSET": "001317105000160017000",
						"SECTOR": "LINTAS SEKTOR",
						"SUBSECTOR": "PEMERINTAHAN",
						"ASSET": "FASILITAS KEPOLISIAN",
						"JALAN": "JL. CIPUTAT RAYA",
						"ID_KEL": 3171050001,
						"KELURAHAN": "PONDOK PINANG",
						"AREA_M2": 0,
						"KECAMATAN": "KEBAYORAN LAMA",
						"KOTA": "JAKARTA SELATAN",
						"RW": "009",
						"ORIG_FID": 49,
						"mapid_id": 49,
						"icon-image": "monument",
						"yearCount": {
							"2015": 148,
							"2016": 221,
							"2017": 209,
							"2018": 484
						}
					}
				},
				{
					"type": "Feature",
					"id": "kantor_polisi_point.51",
					"geometry": {
						"type": "Point",
						"coordinates": [
							106.79855782540162,
							-6.253353044895137
						]
					},
					"geometry_name": "the_geom",
					"properties": {
						"NAMA": "POLRES METRO JAKARTA SELATAN",
						"ID_ASSET": "001317106000311027000",
						"SECTOR": "LINTAS SEKTOR",
						"SUBSECTOR": "PEMERINTAHAN",
						"ASSET": "FASILITAS KEPOLISIAN",
						"JALAN": "JL. DHARMA WANGSA III NO. 1",
						"ID_KEL": 3171060003,
						"KELURAHAN": "PULO",
						"AREA_M2": 8651,
						"KECAMATAN": "KEBAYORAN BARU",
						"KOTA": "JAKARTA SELATAN",
						"RW": "001",
						"ORIG_FID": 50,
						"mapid_id": 50,
						"icon-image": "monument",
						"yearCount": {
							"2015": 132,
							"2016": 322,
							"2017": 245,
							"2018": 194
						}
					}
				},
				{
					"type": "Feature",
					"id": "kantor_polisi_point.52",
					"geometry": {
						"type": "Point",
						"coordinates": [
							106.80158237388201,
							-6.2405505027888495
						]
					},
					"geometry_name": "the_geom",
					"properties": {
						"NAMA": "MABES POLRI/LAPANGAN OLAH RAGA",
						"ID_ASSET": "001317106000501062000",
						"SECTOR": "LINTAS SEKTOR",
						"SUBSECTOR": "PEMERINTAHAN",
						"ASSET": "FASILITAS KEPOLISIAN",
						"JALAN": "JL. PALATEHAN RAYA",
						"ID_KEL": 3171060005,
						"KELURAHAN": "MELAWAI",
						"AREA_M2": 14259,
						"KECAMATAN": "KEBAYORAN BARU",
						"KOTA": "JAKARTA SELATAN",
						"RW": "001",
						"ORIG_FID": 51,
						"mapid_id": 51,
						"icon-image": "monument",
						"yearCount": {
							"2015": 167,
							"2016": 231,
							"2017": 209,
							"2018": 189
						}
					}
				},
				{
					"type": "Feature",
					"id": "kantor_polisi_point.53",
					"geometry": {
						"type": "Point",
						"coordinates": [
							106.78959140064126,
							-6.241554603977435
						]
					},
					"geometry_name": "the_geom",
					"properties": {
						"NAMA": "POLSEK KEB. BARU",
						"ID_ASSET": "001317106000604004000",
						"SECTOR": "LINTAS SEKTOR",
						"SUBSECTOR": "PEMERINTAHAN",
						"ASSET": "FASILITAS KEPOLISIAN",
						"JALAN": "JL. GANDARIA 2",
						"ID_KEL": 3171060006,
						"KELURAHAN": "KRAMAT PELA",
						"AREA_M2": 1594,
						"KECAMATAN": "KEBAYORAN BARU",
						"KOTA": "JAKARTA SELATAN",
						"RW": "001",
						"ORIG_FID": 52,
						"mapid_id": 52,
						"icon-image": "monument",
						"yearCount": {
							"2015": 233,
							"2016": 143,
							"2017": 276,
							"2018": 233
						}
					}
				},
				{
					"type": "Feature",
					"id": "kantor_polisi_point.54",
					"geometry": {
						"type": "Point",
						"coordinates": [
							106.80338408841452,
							-6.238913781502746
						]
					},
					"geometry_name": "the_geom",
					"properties": {
						"NAMA": "MABES POLRI",
						"ID_ASSET": "001317106000806096000",
						"SECTOR": "LINTAS SEKTOR",
						"SUBSECTOR": "PEMERINTAHAN",
						"ASSET": "FASILITAS KEPOLISIAN",
						"JALAN": "JL. TRUNOJOYO",
						"ID_KEL": 3171060008,
						"KELURAHAN": "SELONG",
						"AREA_M2": 30066,
						"KECAMATAN": "KEBAYORAN BARU",
						"KOTA": "JAKARTA SELATAN",
						"RW": "002",
						"ORIG_FID": 53,
						"mapid_id": 53,
						"icon-image": "monument",
						"yearCount": {
							"2015": 231,
							"2016": 99,
							"2017": 100,
							"2018": 96
						}
					}
				},
				{
					"type": "Feature",
					"id": "kantor_polisi_point.55",
					"geometry": {
						"type": "Point",
						"coordinates": [
							106.80135450024262,
							-6.238835560332172
						]
					},
					"geometry_name": "the_geom",
					"properties": {
						"NAMA": "MABES KEPOLISIAN RI",
						"ID_ASSET": "001317106000807027000",
						"SECTOR": "LINTAS SEKTOR",
						"SUBSECTOR": "PEMERINTAHAN",
						"ASSET": "FASILITAS KEPOLISIAN",
						"JALAN": "JL. TRUNOJOYO",
						"ID_KEL": 3171060008,
						"KELURAHAN": "SELONG",
						"AREA_M2": 0,
						"KECAMATAN": "KEBAYORAN BARU",
						"KOTA": "JAKARTA SELATAN",
						"RW": "001",
						"ORIG_FID": 54,
						"mapid_id": 54,
						"icon-image": "monument",
						"yearCount": {
							"2015": 78,
							"2016": 88,
							"2017": 89,
							"2018": 101
						}
					}
				},
				{
					"type": "Feature",
					"id": "kantor_polisi_point.56",
					"geometry": {
						"type": "Point",
						"coordinates": [
							106.81236387876541,
							-6.2227169954547055
						]
					},
					"geometry_name": "the_geom",
					"properties": {
						"NAMA": "POLDA",
						"ID_ASSET": "001317106001005007000",
						"SECTOR": "LINTAS SEKTOR",
						"SUBSECTOR": "PEMERINTAHAN",
						"ASSET": "FASILITAS KEPOLISIAN",
						"JALAN": "JL GATOT SUBROTO, JEND.",
						"ID_KEL": 3171060010,
						"KELURAHAN": "SENAYAN",
						"AREA_M2": 0,
						"KECAMATAN": "KEBAYORAN BARU",
						"KOTA": "JAKARTA SELATAN",
						"RW": "003",
						"ORIG_FID": 55,
						"mapid_id": 55,
						"icon-image": "monument",
						"yearCount": {
							"2015": 233,
							"2016": 127,
							"2017": 321,
							"2018": 390
						}
					}
				},
				{
					"type": "Feature",
					"id": "kantor_polisi_point.57",
					"geometry": {
						"type": "Point",
						"coordinates": [
							106.8266460414043,
							-6.2406244398685455
						]
					},
					"geometry_name": "the_geom",
					"properties": {
						"NAMA": "POLSEK",
						"ID_ASSET": "001317107000410015000",
						"SECTOR": "LINTAS SEKTOR",
						"SUBSECTOR": "PEMERINTAHAN",
						"ASSET": "FASILITAS KEPOLISIAN",
						"JALAN": "JL TENDEAN, KAPTEN. NO.08",
						"ID_KEL": 3171070004,
						"KELURAHAN": "MAMPANG PRAPATAN",
						"AREA_M2": 696,
						"KECAMATAN": "MAMPANG PRAPATAN",
						"KOTA": "JAKARTA SELATAN",
						"RW": "003",
						"ORIG_FID": 56,
						"mapid_id": 56,
						"icon-image": "monument",
						"yearCount": {
							"2015": 124,
							"2016": 213,
							"2017": 322,
							"2018": 154
						}
					}
				},
				{
					"type": "Feature",
					"id": "kantor_polisi_point.58",
					"geometry": {
						"type": "Point",
						"coordinates": [
							106.85503214985573,
							-6.243807341190393
						]
					},
					"geometry_name": "the_geom",
					"properties": {
						"NAMA": "DITLANTAS POLRI/ KANTOR MARKAS BESAR RI",
						"ID_ASSET": "001317108000609007000",
						"SECTOR": "LINTAS SEKTOR",
						"SUBSECTOR": "PEMERINTAHAN",
						"ASSET": "FASILITAS KEPOLISIAN",
						"JALAN": "JL MT HARYONO NO",
						"ID_KEL": 3171080006,
						"KELURAHAN": "CIKOKO",
						"AREA_M2": 3220,
						"KECAMATAN": "PANCORAN",
						"KOTA": "JAKARTA SELATAN",
						"RW": "002",
						"ORIG_FID": 57,
						"mapid_id": 57,
						"icon-image": "monument",
						"yearCount": {
							"2015": 267,
							"2016": 128,
							"2017": 222,
							"2018": 217
						}
					}
				},
				{
					"type": "Feature",
					"id": "kantor_polisi_point.59",
					"geometry": {
						"type": "Point",
						"coordinates": [
							106.85570466295917,
							-6.244680536684047
						]
					},
					"geometry_name": "the_geom",
					"properties": {
						"NAMA": "DITLANTAS POLRI/ NASIONAL TRAFIC MANAGEM",
						"ID_ASSET": "001317108000609054000",
						"SECTOR": "LINTAS SEKTOR",
						"SUBSECTOR": "PEMERINTAHAN",
						"ASSET": "FASILITAS KEPOLISIAN",
						"JALAN": "JL CIKOKO TIMUR II NO",
						"ID_KEL": 3171080006,
						"KELURAHAN": "CIKOKO",
						"AREA_M2": 7548,
						"KECAMATAN": "PANCORAN",
						"KOTA": "JAKARTA SELATAN",
						"RW": "002",
						"ORIG_FID": 58,
						"mapid_id": 58,
						"icon-image": "monument",
						"yearCount": {
							"2015": 211,
							"2016": 128,
							"2017": 198,
							"2018": 332
						}
					}
				},
				{
					"type": "Feature",
					"id": "kantor_polisi_point.60",
					"geometry": {
						"type": "Point",
						"coordinates": [
							106.82594249975295,
							-6.211260905240133
						]
					},
					"geometry_name": "the_geom",
					"properties": {
						"NAMA": "POLSEK SETIABUDI",
						"ID_ASSET": "001317110000413125000",
						"SECTOR": "LINTAS SEKTOR",
						"SUBSECTOR": "PEMERINTAHAN",
						"ASSET": "FASILITAS KEPOLISIAN",
						"JALAN": "JL SETIABUDI 1 NO 1",
						"ID_KEL": 3171100004,
						"KELURAHAN": "KARET",
						"AREA_M2": 945,
						"KECAMATAN": "SETIA BUDI",
						"KOTA": "JAKARTA SELATAN",
						"RW": "007",
						"ORIG_FID": 59,
						"mapid_id": 59,
						"icon-image": "monument",
						"yearCount": {
							"2015": 271,
							"2016": 177,
							"2017": 184,
							"2018": 103
						}
					}
				},
				{
					"type": "Feature",
					"id": "kantor_polisi_point.61",
					"geometry": {
						"type": "Point",
						"coordinates": [
							106.86835557359973,
							-6.243786120202565
						]
					},
					"geometry_name": "the_geom",
					"properties": {
						"NAMA": "POLSEK JATI NEGARA",
						"ID_ASSET": "001317206000133047000",
						"SECTOR": "LINTAS SEKTOR",
						"SUBSECTOR": "PEMERINTAHAN",
						"ASSET": "FASILITAS KEPOLISIAN",
						"JALAN": "JL. OTISTA RAYA NO. -",
						"ID_KEL": 3172060001,
						"KELURAHAN": "BIDARA CINA",
						"AREA_M2": 1541,
						"KECAMATAN": "JATINEGARA",
						"KOTA": "JAKARTA TIMUR",
						"RW": "012",
						"ORIG_FID": 60,
						"mapid_id": 60,
						"icon-image": "monument",
						"yearCount": {
							"2015": 123,
							"2016": 231,
							"2017": 235,
							"2018": 321
						}
					}
				},
				{
					"type": "Feature",
					"id": "kantor_polisi_point.62",
					"geometry": {
						"type": "Point",
						"coordinates": [
							106.86326356750479,
							-6.214556218586029
						]
					},
					"geometry_name": "the_geom",
					"properties": {
						"NAMA": "POLRES JAKARTA TIMUR",
						"ID_ASSET": "001317206000702007000",
						"SECTOR": "LINTAS SEKTOR",
						"SUBSECTOR": "PEMERINTAHAN",
						"ASSET": "FASILITAS KEPOLISIAN",
						"JALAN": "JL MATRAMAN RAYA NO.224",
						"ID_KEL": 3172060007,
						"KELURAHAN": "BALI MESTER",
						"AREA_M2": 1502,
						"KECAMATAN": "JATINEGARA",
						"KOTA": "JAKARTA TIMUR",
						"RW": "006",
						"ORIG_FID": 61,
						"mapid_id": 61,
						"icon-image": "monument",
						"yearCount": {
							"2015": 123,
							"2016": 90,
							"2017": 333,
							"2018": 127
						}
					}
				},
				{
					"type": "Feature",
					"id": "kantor_polisi_point.63",
					"geometry": {
						"type": "Point",
						"coordinates": [
							106.91745023483382,
							-6.247602005550889
						]
					},
					"geometry_name": "the_geom",
					"properties": {
						"NAMA": "POLSEK DUREN SAWIT",
						"ID_ASSET": "001317207000248127000",
						"SECTOR": "LINTAS SEKTOR",
						"SUBSECTOR": "PEMERINTAHAN",
						"ASSET": "FASILITAS KEPOLISIAN",
						"JALAN": "JL. RAYA KALI MALANG NO. 27",
						"ID_KEL": 3172070002,
						"KELURAHAN": "DUREN SAWIT",
						"AREA_M2": 1576,
						"KECAMATAN": "DUREN SAWIT",
						"KOTA": "JAKARTA TIMUR",
						"RW": "016",
						"ORIG_FID": 62,
						"mapid_id": 62,
						"icon-image": "monument",
						"yearCount": {
							"2015": 123,
							"2016": 336,
							"2017": 176,
							"2018": 244
						}
					}
				},
				{
					"type": "Feature",
					"id": "kantor_polisi_point.64",
					"geometry": {
						"type": "Point",
						"coordinates": [
							106.93456984818114,
							-6.221687584906337
						]
					},
					"geometry_name": "the_geom",
					"properties": {
						"NAMA": "KANTOR POLISI",
						"ID_ASSET": "001317207000507003000",
						"SECTOR": "LINTAS SEKTOR",
						"SUBSECTOR": "PEMERINTAHAN",
						"ASSET": "FASILITAS KEPOLISIAN",
						"JALAN": "JL RAYA BUNGA RAMPAI X",
						"ID_KEL": 3172070005,
						"KELURAHAN": "MALAKA JAYA",
						"AREA_M2": 187,
						"KECAMATAN": "DUREN SAWIT",
						"KOTA": "JAKARTA TIMUR",
						"RW": "005",
						"ORIG_FID": 63,
						"mapid_id": 63,
						"icon-image": "monument",
						"yearCount": {
							"2015": 126,
							"2016": 178,
							"2017": 198,
							"2018": 200
						}
					}
				},
				{
					"type": "Feature",
					"id": "kantor_polisi_point.65",
					"geometry": {
						"type": "Point",
						"coordinates": [
							106.94064278801802,
							-6.184316713919543
						]
					},
					"geometry_name": "the_geom",
					"properties": {
						"NAMA": "POLSEK METROPOLITAN CAKUNG",
						"ID_ASSET": "001317208000633001000",
						"SECTOR": "LINTAS SEKTOR",
						"SUBSECTOR": "PEMERINTAHAN",
						"ASSET": "FASILITAS KEPOLISIAN",
						"JALAN": "JL RAYA BEKASI",
						"ID_KEL": 3172080006,
						"KELURAHAN": "CAKUNG BARAT",
						"AREA_M2": 1565,
						"KECAMATAN": "CAKUNG",
						"KOTA": "JAKARTA TIMUR",
						"RW": "002",
						"ORIG_FID": 64,
						"mapid_id": 64,
						"icon-image": "monument",
						"yearCount": {
							"2015": 194,
							"2016": 205,
							"2017": 212,
							"2018": 423
						}
					}
				}
			]
		}
	}]
}